-- Merging decision tree log ---
manifest
ADDED from D:\Documents\Android Projecten\Prof_Werkstuk\app\src\main\AndroidManifest.xml:2:1-24:12
	package
		ADDED from D:\Documents\Android Projecten\Prof_Werkstuk\app\src\main\AndroidManifest.xml:3:5-48
		INJECTED from D:\Documents\Android Projecten\Prof_Werkstuk\app\src\main\AndroidManifest.xml
		INJECTED from D:\Documents\Android Projecten\Prof_Werkstuk\app\src\main\AndroidManifest.xml
	android:versionName
		INJECTED from D:\Documents\Android Projecten\Prof_Werkstuk\app\src\main\AndroidManifest.xml
		INJECTED from D:\Documents\Android Projecten\Prof_Werkstuk\app\src\main\AndroidManifest.xml
	xmlns:android
		ADDED from D:\Documents\Android Projecten\Prof_Werkstuk\app\src\main\AndroidManifest.xml:2:11-69
	android:versionCode
		INJECTED from D:\Documents\Android Projecten\Prof_Werkstuk\app\src\main\AndroidManifest.xml
		INJECTED from D:\Documents\Android Projecten\Prof_Werkstuk\app\src\main\AndroidManifest.xml
uses-permission#android.permission.INTERNET
ADDED from D:\Documents\Android Projecten\Prof_Werkstuk\app\src\main\AndroidManifest.xml:4:5-67
	android:name
		ADDED from D:\Documents\Android Projecten\Prof_Werkstuk\app\src\main\AndroidManifest.xml:4:22-64
application
ADDED from D:\Documents\Android Projecten\Prof_Werkstuk\app\src\main\AndroidManifest.xml:5:5-22:19
MERGED from [com.android.support:appcompat-v7:23.0.1] D:\Documents\Android Projecten\Prof_Werkstuk\app\build\intermediates\exploded-aar\com.android.support\appcompat-v7\23.0.1\AndroidManifest.xml:22:5-20
MERGED from [com.android.support:support-v4:23.0.1] D:\Documents\Android Projecten\Prof_Werkstuk\app\build\intermediates\exploded-aar\com.android.support\support-v4\23.0.1\AndroidManifest.xml:22:5-20
MERGED from [com.android.support:support-v4:23.0.1] D:\Documents\Android Projecten\Prof_Werkstuk\app\build\intermediates\exploded-aar\com.android.support\support-v4\23.0.1\AndroidManifest.xml:22:5-20
	android:label
		ADDED from D:\Documents\Android Projecten\Prof_Werkstuk\app\src\main\AndroidManifest.xml:8:9-41
	android:allowBackup
		ADDED from D:\Documents\Android Projecten\Prof_Werkstuk\app\src\main\AndroidManifest.xml:6:9-35
	android:icon
		ADDED from D:\Documents\Android Projecten\Prof_Werkstuk\app\src\main\AndroidManifest.xml:7:9-43
	android:theme
		ADDED from D:\Documents\Android Projecten\Prof_Werkstuk\app\src\main\AndroidManifest.xml:9:9-40
activity#stekelenburg.daniel.prof_werkstuk.Main
ADDED from D:\Documents\Android Projecten\Prof_Werkstuk\app\src\main\AndroidManifest.xml:10:9-21:20
	android:screenOrientation
		ADDED from D:\Documents\Android Projecten\Prof_Werkstuk\app\src\main\AndroidManifest.xml:13:13-50
	android:label
		ADDED from D:\Documents\Android Projecten\Prof_Werkstuk\app\src\main\AndroidManifest.xml:14:13-45
	android:configChanges
		ADDED from D:\Documents\Android Projecten\Prof_Werkstuk\app\src\main\AndroidManifest.xml:12:13-74
	android:theme
		ADDED from D:\Documents\Android Projecten\Prof_Werkstuk\app\src\main\AndroidManifest.xml:15:13-77
	android:name
		ADDED from D:\Documents\Android Projecten\Prof_Werkstuk\app\src\main\AndroidManifest.xml:11:13-33
intent-filter#android.intent.action.MAIN+android.intent.category.LAUNCHER
ADDED from D:\Documents\Android Projecten\Prof_Werkstuk\app\src\main\AndroidManifest.xml:16:13-20:29
action#android.intent.action.MAIN
ADDED from D:\Documents\Android Projecten\Prof_Werkstuk\app\src\main\AndroidManifest.xml:17:17-69
	android:name
		ADDED from D:\Documents\Android Projecten\Prof_Werkstuk\app\src\main\AndroidManifest.xml:17:25-66
category#android.intent.category.LAUNCHER
ADDED from D:\Documents\Android Projecten\Prof_Werkstuk\app\src\main\AndroidManifest.xml:19:17-77
	android:name
		ADDED from D:\Documents\Android Projecten\Prof_Werkstuk\app\src\main\AndroidManifest.xml:19:27-74
uses-sdk
INJECTED from D:\Documents\Android Projecten\Prof_Werkstuk\app\src\main\AndroidManifest.xml reason: use-sdk injection requested
MERGED from [com.android.support:appcompat-v7:23.0.1] D:\Documents\Android Projecten\Prof_Werkstuk\app\build\intermediates\exploded-aar\com.android.support\appcompat-v7\23.0.1\AndroidManifest.xml:20:5-43
MERGED from [com.android.support:support-v4:23.0.1] D:\Documents\Android Projecten\Prof_Werkstuk\app\build\intermediates\exploded-aar\com.android.support\support-v4\23.0.1\AndroidManifest.xml:20:5-43
MERGED from [com.android.support:support-v4:23.0.1] D:\Documents\Android Projecten\Prof_Werkstuk\app\build\intermediates\exploded-aar\com.android.support\support-v4\23.0.1\AndroidManifest.xml:20:5-43
	android:targetSdkVersion
		INJECTED from D:\Documents\Android Projecten\Prof_Werkstuk\app\src\main\AndroidManifest.xml
		INJECTED from D:\Documents\Android Projecten\Prof_Werkstuk\app\src\main\AndroidManifest.xml
	android:minSdkVersion
		INJECTED from D:\Documents\Android Projecten\Prof_Werkstuk\app\src\main\AndroidManifest.xml
		INJECTED from D:\Documents\Android Projecten\Prof_Werkstuk\app\src\main\AndroidManifest.xml
